{
    "page": 1,
    "total_results": 357997,
    "total_pages": 17900,
    "results": [
        {
            "popularity": 653.507744,
            "id": 337167,
            "video": false,
            "vote_count": 1509,
            "vote_average": 6,
            "title": "Fifty Shades Freed",
            "release_date": "2018-02-09",
            "original_language": "en",
            "original_title": "Fifty Shades Freed",
            "genre_ids": [
                18,
                10749
            ],
            "backdrop_path": "/9ywA15OAiwjSTvg3cBs9B7kOCBF.jpg",
            "adult": false,
            "overview": "Believing they have left behind shadowy figures from their past, newlyweds Christian and Ana fully embrace an inextricable connection and shared life of luxury. But just as she steps into her role as Mrs. Grey and he relaxes into an unfamiliar stability, new threats could jeopardize their happy ending before it even begins.",
            "poster_path": "/jjPJ4s3DWZZvI4vw8Xfi4Vqa1Q8.jpg"
        },
        {
            "popularity": 408.2134,
            "id": 269149,
            "video": false,
            "vote_count": 7013,
            "vote_average": 7.7,
            "title": "Zootopia",
            "release_date": "2016-03-04",
            "original_language": "en",
            "original_title": "Zootopia",
            "genre_ids": [
                12,
                16,
                35,
                10751
            ],
            "backdrop_path": "/mhdeE1yShHTaDbJVdWyTlzFvNkr.jpg",
            "adult": false,
            "overview": "Determined to prove herself, Officer Judy Hopps, the first bunny on Zootopia's police force, jumps at the chance to crack her first case - even if it means partnering with scam-artist fox Nick Wilde to solve the mystery.",
            "poster_path": "/sM33SANp9z6rXW8Itn7NnG1GOEs.jpg"
        },
        {
            "popularity": 288.878908,
            "vote_count": 715,
            "video": false,
            "poster_path": "/7WsyChQLEftFiDOVTGkv3hFpyyt.jpg",
            "id": 299536,
            "adult": false,
            "backdrop_path": "/bOGkgRGdhrBYJSLpXaxhXVstddV.jpg",
            "original_language": "en",
            "original_title": "Avengers: Infinity War",
            "genre_ids": [
                28,
                12,
                14,
                878
            ],
            "title": "Avengers: Infinity War",
            "vote_average": 8.8,
            "overview": "As the Avengers and their allies have continued to protect the world from threats too large for any one hero to handle, a new danger has emerged from the cosmic shadows: Thanos. A despot of intergalactic infamy, his goal is to collect all six Infinity Stones, artifacts of unimaginable power, and use them to inflict his twisted will on all of reality. Everything the Avengers have fought for has led up to this moment - the fate of Earth and existence itself has never been more uncertain.",
            "release_date": "2018-04-27"
        },
        {
            "popularity": 283.283854,
            "id": 354912,
            "video": false,
            "vote_count": 4071,
            "vote_average": 7.8,
            "title": "Coco",
            "release_date": "2017-11-22",
            "original_language": "en",
            "original_title": "Coco",
            "genre_ids": [
                12,
                16,
                35,
                10751
            ],
            "backdrop_path": "/askg3SMvhqEl4OL52YuvdtY40Yb.jpg",
            "adult": false,
            "overview": "Despite his family’s baffling generations-old ban on music, Miguel dreams of becoming an accomplished musician like his idol, Ernesto de la Cruz. Desperate to prove his talent, Miguel finds himself in the stunning and colorful Land of the Dead following a mysterious chain of events. Along the way, he meets charming trickster Hector, and together, they set off on an extraordinary journey to unlock the real story behind Miguel's family history.",
            "poster_path": "/eKi8dIrr8voobbaGzDpe8w0PVbC.jpg"
        },
        {
            "popularity": 255.806257,
            "vote_count": 305,
            "video": false,
            "poster_path": "/30oXQKwibh0uANGMs0Sytw3uN22.jpg",
            "id": 427641,
            "adult": false,
            "backdrop_path": "/wrqUiMXttHE4UBFMhLHlN601MZh.jpg",
            "original_language": "en",
            "original_title": "Rampage",
            "genre_ids": [
                28,
                12,
                878
            ],
            "title": "Rampage",
            "vote_average": 5.9,
            "overview": "Primatologist Davis Okoye shares an unshakable bond with George, the extraordinarily intelligent, silverback gorilla who has been in his care since birth.  But a rogue genetic experiment gone awry mutates this gentle ape into a raging creature of enormous size.  To make matters worse, it’s soon discovered there are other similarly altered animals.  As these newly created alpha predators tear across North America, destroying everything in their path, Okoye teams with a discredited genetic engineer to secure an antidote, fighting his way through an ever-changing battlefield, not only to halt a global catastrophe but to save the fearsome creature that was once his friend.",
            "release_date": "2018-04-13"
        },
        {
            "popularity": 220.304658,
            "id": 284054,
            "video": false,
            "vote_count": 4363,
            "vote_average": 7.3,
            "title": "Black Panther",
            "release_date": "2018-02-16",
            "original_language": "en",
            "original_title": "Black Panther",
            "genre_ids": [
                28,
                12,
                14,
                878
            ],
            "backdrop_path": "/AlFqBwJnokrp9zWTXOUv7uhkaeq.jpg",
            "adult": false,
            "overview": "King T'Challa returns home from America to the reclusive, technologically advanced African nation of Wakanda to serve as his country's new leader. However, T'Challa soon finds that he is challenged for the throne by factions within his own country as well as without.  Using powers reserved to Wakandan kings, T'Challa assumes the Black Panther mantel to join with girlfriend Nakia, the queen-mother, his princess-kid sister,  members of the Dora Milaje (the Wakandan \"special forces\"), and an American secret agent, to prevent Wakanda from being dragged into a world war.",
            "poster_path": "/uxzzxijgPIY7slzFvMotPv8wjKA.jpg"
        },
        {
            "popularity": 186.305626,
            "vote_count": 7996,
            "video": false,
            "poster_path": "/tWqifoYuwLETmmasnGHO7xBjEtt.jpg",
            "id": 321612,
            "adult": false,
            "backdrop_path": "/6aUWe0GSl69wMTSWWexsorMIvwU.jpg",
            "original_language": "en",
            "original_title": "Beauty and the Beast",
            "genre_ids": [
                14,
                10749,
                10751
            ],
            "title": "Beauty and the Beast",
            "vote_average": 6.8,
            "overview": "A live-action adaptation of Disney's version of the classic tale of a cursed prince and a beautiful young woman who helps him break the spell.",
            "release_date": "2017-03-17"
        },
        {
            "popularity": 175.556413,
            "id": 181808,
            "video": false,
            "vote_count": 5099,
            "vote_average": 7.1,
            "title": "Star Wars: The Last Jedi",
            "release_date": "2017-12-15",
            "original_language": "en",
            "original_title": "Star Wars: The Last Jedi",
            "genre_ids": [
                12,
                14,
                878
            ],
            "backdrop_path": "/oVdLj5JVqNWGY0LEhBfHUuMrvWJ.jpg",
            "adult": false,
            "overview": "Rey develops her newly discovered abilities with the guidance of Luke Skywalker, who is unsettled by the strength of her powers. Meanwhile, the Resistance prepares to do battle with the First Order.",
            "poster_path": "/kOVEVeg59E0wsnXmF9nrh6OmWII.jpg"
        },
        {
            "popularity": 163.323607,
            "vote_count": 752,
            "video": false,
            "poster_path": "/nAU74GmpUk7t5iklEp3bufwDq4n.jpg",
            "id": 447332,
            "adult": false,
            "backdrop_path": "/tZmr0ozxSc2GasRuddtlRkf7f68.jpg",
            "original_language": "en",
            "original_title": "A Quiet Place",
            "genre_ids": [
                18,
                27,
                878,
                53
            ],
            "title": "A Quiet Place",
            "vote_average": 7.5,
            "overview": "A family is forced to live in silence while hiding from creatures that hunt by sound.",
            "release_date": "2018-04-06"
        },
        {
            "popularity": 156.88905,
            "id": 198663,
            "video": false,
            "vote_count": 7653,
            "vote_average": 7,
            "title": "The Maze Runner",
            "release_date": "2014-09-19",
            "original_language": "en",
            "original_title": "The Maze Runner",
            "genre_ids": [
                28,
                9648,
                878,
                53
            ],
            "backdrop_path": "/lkOZcsXcOLZYeJ2YxJd3vSldvU4.jpg",
            "adult": false,
            "overview": "Set in a post-apocalyptic world, young Thomas is deposited in a community of boys after his memory is erased, soon learning they're all trapped in a maze that will require him to join forces with fellow “runners” for a shot at escape.",
            "poster_path": "/coss7RgL0NH6g4fC2s5atvf3dFO.jpg"
        },
        {
            "popularity": 155.571674,
            "id": 333339,
            "video": false,
            "vote_count": 1604,
            "vote_average": 7.9,
            "title": "Ready Player One",
            "release_date": "2018-03-29",
            "original_language": "en",
            "original_title": "Ready Player One",
            "genre_ids": [
                28,
                12,
                878
            ],
            "backdrop_path": "/8aoNKa1zDnx1jrsBCJbQ2fc4hVo.jpg",
            "adult": false,
            "overview": "When the creator of a popular video game system dies, a virtual contest is created to compete for his fortune.",
            "poster_path": "/pU1ULUq8D3iRxl1fdX2lZIzdHuI.jpg"
        },
        {
            "popularity": 149.442735,
            "vote_count": 12491,
            "video": false,
            "poster_path": "/y31QB9kn3XSudA15tV7UWQ9XLuW.jpg",
            "id": 118340,
            "adult": false,
            "backdrop_path": "/bHarw8xrmQeqf3t8HpuMY7zoK4x.jpg",
            "original_language": "en",
            "original_title": "Guardians of the Galaxy",
            "genre_ids": [
                28,
                12,
                878
            ],
            "title": "Guardians of the Galaxy",
            "vote_average": 7.9,
            "overview": "Light years from Earth, 26 years after being abducted, Peter Quill finds himself the prime target of a manhunt after discovering an orb wanted by Ronan the Accuser.",
            "release_date": "2014-08-01"
        },
        {
            "popularity": 143.431155,
            "id": 24428,
            "video": false,
            "vote_count": 14360,
            "vote_average": 7.5,
            "title": "The Avengers",
            "release_date": "2012-05-04",
            "original_language": "en",
            "original_title": "The Avengers",
            "genre_ids": [
                28,
                12,
                878
            ],
            "backdrop_path": "/hbn46fQaRmlpBuUrEiFqv0GDL6Y.jpg",
            "adult": false,
            "overview": "When an unexpected enemy emerges and threatens global safety and security, Nick Fury, director of the international peacekeeping agency known as S.H.I.E.L.D., finds himself in need of a team to pull the world back from the brink of disaster. Spanning the globe, a daring recruitment effort begins!",
            "poster_path": "/cezWGskPY5x7GaglTTRN4Fugfb8.jpg"
        },
        {
            "popularity": 141.607789,
            "vote_count": 5514,
            "video": false,
            "poster_path": "/2EUAUIu5lHFlkj5FRryohlH6CRO.jpg",
            "id": 119450,
            "adult": false,
            "backdrop_path": "/t7VSsAbIQS6kpO4ikuCNSiugsSy.jpg",
            "original_language": "en",
            "original_title": "Dawn of the Planet of the Apes",
            "genre_ids": [
                28,
                18,
                878,
                53
            ],
            "title": "Dawn of the Planet of the Apes",
            "vote_average": 7.2,
            "overview": "A group of scientists in San Francisco struggle to stay alive in the aftermath of a plague that is wiping out humanity, while Caesar tries to maintain dominance over his community of intelligent apes.",
            "release_date": "2014-07-11"
        },
        {
            "popularity": 136.390408,
            "vote_count": 1244,
            "video": false,
            "poster_path": "/nrsx0jEaBgXq4PWo7SooSnYJTv.jpg",
            "id": 274855,
            "adult": false,
            "backdrop_path": "/79X8JkGxzc1tJMi0KxUSaPLooVg.jpg",
            "original_language": "en",
            "original_title": "Geostorm",
            "genre_ids": [
                28,
                878,
                53
            ],
            "title": "Geostorm",
            "vote_average": 5.7,
            "overview": "After an unprecedented series of natural disasters threatened the planet, the world's leaders came together to create an intricate network of satellites to control the global climate and keep everyone safe. But now, something has gone wrong: the system built to protect Earth is attacking it, and it becomes a race against the clock to uncover the real threat before a worldwide geostorm wipes out everything and everyone along with it.",
            "release_date": "2017-10-20"
        },
        {
            "popularity": 135.140071,
            "id": 284053,
            "video": false,
            "vote_count": 5724,
            "vote_average": 7.4,
            "title": "Thor: Ragnarok",
            "release_date": "2017-11-03",
            "original_language": "en",
            "original_title": "Thor: Ragnarok",
            "genre_ids": [
                28,
                12,
                14
            ],
            "backdrop_path": "/kaIfm5ryEOwYg8mLbq8HkPuM1Fo.jpg",
            "adult": false,
            "overview": "Thor is imprisoned on the other side of the universe and finds himself in a race against time to get back to Asgard to stop Ragnarok, the prophecy of destruction to his homeworld and the end of Asgardian civilization, at the hands of an all-powerful new threat, the ruthless Hela.",
            "poster_path": "/rzRwTcFvttcN1ZpX2xv4j3tSdJu.jpg"
        },
        {
            "popularity": 131.622102,
            "id": 399055,
            "video": false,
            "vote_count": 3613,
            "vote_average": 7.3,
            "title": "The Shape of Water",
            "release_date": "2017-12-01",
            "original_language": "en",
            "original_title": "The Shape of Water",
            "genre_ids": [
                18,
                14,
                10749
            ],
            "backdrop_path": "/abirSHwWgKajV3hXhaIR5lcCIXe.jpg",
            "adult": false,
            "overview": "An other-worldly story, set against the backdrop of Cold War era America circa 1962, where a mute janitor working at a lab falls in love with an amphibious man being held captive there and devises a plan to help him escape.",
            "poster_path": "/k4FwHlMhuRR5BISY2Gm2QZHlH5Q.jpg"
        },
        {
            "popularity": 130.645089,
            "vote_count": 7280,
            "video": false,
            "poster_path": "/5vHssUeVe25bMrof1HyaPyWgaP.jpg",
            "id": 245891,
            "adult": false,
            "backdrop_path": "/umC04Cozevu8nn3JTDJ1pc7PVTn.jpg",
            "original_language": "en",
            "original_title": "John Wick",
            "genre_ids": [
                28,
                53
            ],
            "title": "John Wick",
            "vote_average": 7,
            "overview": "Ex-hitman John Wick comes out of retirement to track down the gangsters that took everything from him.",
            "release_date": "2014-10-24"
        },
        {
            "popularity": 128.932622,
            "vote_count": 857,
            "video": false,
            "poster_path": "/fchHLsLjFvzAFSQykiMwdF1051.jpg",
            "id": 353616,
            "adult": false,
            "backdrop_path": "/1qIzlhLGPSm6TxlvXBWe0Q5er7O.jpg",
            "original_language": "en",
            "original_title": "Pitch Perfect 3",
            "genre_ids": [
                35,
                10402
            ],
            "title": "Pitch Perfect 3",
            "vote_average": 6.3,
            "overview": "After the highs of winning the world championships, the Bellas find themselves split apart and discovering there aren't job prospects for making music with your mouth. But when they get the chance to reunite for an overseas USO tour, this group of awesome nerds will come together to make some music, and some questionable decisions, one last time.",
            "release_date": "2017-12-22"
        },
        {
            "popularity": 118.950261,
            "id": 483877,
            "video": false,
            "vote_count": 11,
            "vote_average": 4.5,
            "title": "15+ IQ Krachoot",
            "release_date": "2017-08-03",
            "original_language": "th",
            "original_title": "15 ไอคิวกระฉูด",
            "genre_ids": [
                35
            ],
            "backdrop_path": "/fp3Iiap1hblJfqHrBDziqgl9zzB.jpg",
            "adult": false,
            "overview": "A teenage comedy film about a young Yorkie. \"Rising\" opened the first movie on screen.  The story of fun gangs of teenage age 15+ hormones gurgling at the curiosity to try on their love and sex has spread out.",
            "poster_path": "/1RxnEJzXYv5GgPszbHNsWTXPC6M.jpg"
        }
    ]
}